Challenge 2
…
Code

# Here we remove the null values from the county column (These rows are actually subtotal values in the excel that need to filtered from the final dataset)
# Also renamed the column names using more contexual words.
final_ds <- rename(raw_ds_v2, total_employees = TOTAL, state = STATE, county = COUNTY) %>% filter(!is.na(county))

Code

# The final cleaned dataset looks like below
final_ds

# A tibble: 2,930 × 3
   state county               total_employees
   <chr> <chr>                          <dbl>
 1 AE    APO                                2
 2 AK    ANCHORAGE                          7
 3 AK    FAIRBANKS NORTH STAR               2
 4 AK    JUNEAU                             3
 5 AK    MATANUSKA-SUSITNA                  2
 6 AK    SITKA                              1
 7 AK    SKAGWAY MUNICIPALITY              88
 8 AL    AUTAUGA                          102
 9 AL    BALDWIN                          143
10 AL    BARBOUR                            1
# … with 2,920 more rows
…
Code

# Calculating central tendency and dispersion statistics of number of employees for each state
state_ds <- final_ds %>%
  group_by(state) %>%
  select("total_employees") %>%
  summarize_all(list(mean = mean, median = median, sd = sd, min = min, max = max, IQR = IQR), na.rm = TRUE)

state_df = select(state_ds, 1, 2)
print(state_ds)

# A tibble: 53 × 7
   state  mean median    sd   min   max   IQR
   <chr> <dbl>  <dbl> <dbl> <dbl> <dbl> <dbl>
 1 AE      2      2    NA       2     2   0  
 2 AK     17.2    2.5  34.8     1    88   4  
 3 AL     63.5   26   130.      1   990  47  
 4 AP      1      1    NA       1     1   0  
 5 AR     53.8   16.5 131.      1   972  33.8
 6 AZ    210.    94   228.      3   749 296  
 7 CA    239.    61   549.      1  2888 188  
 8 CO     64.0   10   128.      1   553  39  
 9 CT    324    125   520.     26  1561 167. 
10 DC    279    279    NA     279   279   0  
# … with 43 more rows
…
