Challenge 2
…
rr3 <- rr %>% select(state,total_employees)

#Find mode function
compute_mode <- function(x){
  mode_index <- which.max(table(x))
  mode <- x[mode_index]
return(mode)
}

#Calculate central tendency and dispersion for each state
rr2 %>%
  summarise(mean_employees=mean(total_employees),median_employees=median(total_employees), mode_employees=compute_mode(total_employees), iqr_employees=IQR(total_employees), sd_employees = sd(total_employees) , min_employees=min(total_employees), max_employees=max(total_employees)) 

# A tibble: 53 × 8
   state mean_employees median_employees mode_employees iqr_employees
   <chr>          <dbl>            <dbl>          <dbl>         <dbl>
 1 AE               2                2                2           0  
 2 AK              17.2              2.5              2           4  
 3 AL              63.5             26               13          47  
 4 AP               1                1                1           0  
 5 AR              53.8             16.5              5          33.8
 6 AZ             210.              94              270         296  
 7 CA             239.              61                9         188  
 8 CO              64.0             10              553          39  
 9 CT             324              125              486         167. 
10 DC             279              279              279           0  
# ℹ 43 more rows
# ℹ 3 more variables: sd_employees <dbl>, min_employees <dbl>,
#   max_employees <dbl>
…
[1] "Resort Hotel" "City Hotel"  

Code

#Change the name of is_canceled which is not clear to see
hb <- hb %>% 
  mutate(state = case_when
         (is_canceled == "1" ~ "canceled",
          is_canceled == "0" ~ "regular"))

#make a new table for each hotel
CityHotel <-hb %>% filter(`hotel` == "City Hotel")
CityHotel

# A tibble: 79,330 × 33
   hotel      is_canceled lead_time arrival_date_year arrival_date_month
   <chr>            <dbl>     <dbl>             <dbl> <chr>             
 1 City Hotel           0         6              2015 July              
 2 City Hotel           1        88              2015 July              
 3 City Hotel           1        65              2015 July              
 4 City Hotel           1        92              2015 July              
 5 City Hotel           1       100              2015 July              
 6 City Hotel           1        79              2015 July              
 7 City Hotel           0         3              2015 July              
 8 City Hotel           1        63              2015 July              
 9 City Hotel           1        62              2015 July              
10 City Hotel           1        62              2015 July              
# ℹ 79,320 more rows
# ℹ 28 more variables: arrival_date_week_number <dbl>,
#   arrival_date_day_of_month <dbl>, stays_in_weekend_nights <dbl>,
#   stays_in_week_nights <dbl>, adults <dbl>, children <dbl>, babies <dbl>,
#   meal <chr>, country <chr>, market_segment <chr>,
#   distribution_channel <chr>, is_repeated_guest <dbl>,
#   previous_cancellations <dbl>, previous_bookings_not_canceled <dbl>, …

Code

ResortHotel <-hb %>% filter(`hotel` == "Resort Hotel")
ResortHotel

# A tibble: 40,060 × 33
   hotel        is_canceled lead_time arrival_date_year arrival_date_month
   <chr>              <dbl>     <dbl>             <dbl> <chr>             
 1 Resort Hotel           0       342              2015 July              
 2 Resort Hotel           0       737              2015 July              
 3 Resort Hotel           0         7              2015 July              
 4 Resort Hotel           0        13              2015 July              
 5 Resort Hotel           0        14              2015 July              
 6 Resort Hotel           0        14              2015 July              
 7 Resort Hotel           0         0              2015 July              
 8 Resort Hotel           0         9              2015 July              
 9 Resort Hotel           1        85              2015 July              
10 Resort Hotel           1        75              2015 July              
# ℹ 40,050 more rows
# ℹ 28 more variables: arrival_date_week_number <dbl>,
#   arrival_date_day_of_month <dbl>, stays_in_weekend_nights <dbl>,
#   stays_in_week_nights <dbl>, adults <dbl>, children <dbl>, babies <dbl>,
#   meal <chr>, country <chr>, market_segment <chr>,
#   distribution_channel <chr>, is_repeated_guest <dbl>,
#   previous_cancellations <dbl>, previous_bookings_not_canceled <dbl>, …
…
