Challenge 2 Solution
…
Add any comments or documentation as needed. More challenging data may require additional code chunks and documentation.

Describe the data

Using a combination of words and results of R commands, can you provide a high level description of the data? Describe as efficiently as possible where/how the data was (likely) gathered, indicate the cases and variables (both the interpretation and any details you deem useful to the reader to fully understand your chosen data).

I will be using the Hotel Bookings dataset for my Homework. I have imported it using the read_csv() function and will use the glimpse() function the see the columns it has. On a high level it seems to have the information of hotel type and its customer data like arrival departure information, number of people, their booking details, payment type and reservation details. The data has 119,390 rows and 32 columns and seems to be captured from different hotels between 2015 to 2015 when people checked in and out. To get more insights I will use the summary() function.

Code

hotel_bookings <- read_csv("_data/hotel_bookings.csv")
hotel_bookings

# A tibble: 119,390 × 32
   hotel        is_canceled lead_time arrival_date_year arrival_date_month
   <chr>              <dbl>     <dbl>             <dbl> <chr>             
 1 Resort Hotel           0       342              2015 July              
 2 Resort Hotel           0       737              2015 July              
 3 Resort Hotel           0         7              2015 July              
 4 Resort Hotel           0        13              2015 July              
 5 Resort Hotel           0        14              2015 July              
 6 Resort Hotel           0        14              2015 July              
 7 Resort Hotel           0         0              2015 July              
 8 Resort Hotel           0         9              2015 July              
 9 Resort Hotel           1        85              2015 July              
10 Resort Hotel           1        75              2015 July              
# ℹ 119,380 more rows
# ℹ 27 more variables: arrival_date_week_number <dbl>,
#   arrival_date_day_of_month <dbl>, stays_in_weekend_nights <dbl>,
#   stays_in_week_nights <dbl>, adults <dbl>, children <dbl>, babies <dbl>,
#   meal <chr>, country <chr>, market_segment <chr>,
#   distribution_channel <chr>, is_repeated_guest <dbl>,
#   previous_cancellations <dbl>, previous_bookings_not_canceled <dbl>, …
…
