Challenge 1 Instructions
…
Code

railroad_csv <- read_csv("_data/railroad_2012_clean_county.csv") 
birds_from_csv <- read_csv("_data/birds.csv")
railroad_csv 

# A tibble: 2,930 × 3
   state county               total_employees
   <chr> <chr>                          <dbl>
 1 AE    APO                                2
 2 AK    ANCHORAGE                          7
 3 AK    FAIRBANKS NORTH STAR               2
 4 AK    JUNEAU                             3
 5 AK    MATANUSKA-SUSITNA                  2
 6 AK    SITKA                              1
 7 AK    SKAGWAY MUNICIPALITY              88
 8 AL    AUTAUGA                          102
 9 AL    BALDWIN                          143
10 AL    BARBOUR                            1
# ℹ 2,920 more rows

Code

birds_from_csv

# A tibble: 30,977 × 14
   `Domain Code` Domain     `Area Code` Area  `Element Code` Element `Item Code`
   <chr>         <chr>            <dbl> <chr>          <dbl> <chr>         <dbl>
 1 QA            Live Anim…           2 Afgh…           5112 Stocks         1057
 2 QA            Live Anim…           2 Afgh…           5112 Stocks         1057
 3 QA            Live Anim…           2 Afgh…           5112 Stocks         1057
 4 QA            Live Anim…           2 Afgh…           5112 Stocks         1057
 5 QA            Live Anim…           2 Afgh…           5112 Stocks         1057
 6 QA            Live Anim…           2 Afgh…           5112 Stocks         1057
 7 QA            Live Anim…           2 Afgh…           5112 Stocks         1057
 8 QA            Live Anim…           2 Afgh…           5112 Stocks         1057
 9 QA            Live Anim…           2 Afgh…           5112 Stocks         1057
10 QA            Live Anim…           2 Afgh…           5112 Stocks         1057
# ℹ 30,967 more rows
# ℹ 7 more variables: Item <chr>, `Year Code` <dbl>, Year <dbl>, Unit <chr>,
#   Value <dbl>, Flag <chr>, `Flag Description` <chr>
…
