Challenge 10 - Wild Bird
…
statistics(wild_bird_data,`Wet body weight [g]`)

[[1]]
# A tibble: 1 × 7
   mean median   min   max   IQR    sd     var
  <dbl>  <dbl> <dbl> <dbl> <dbl> <dbl>   <dbl>
1  364.   69.2  5.46 9640.  291.  984. 967361.

Using map to compute statistics on two data frames of wild_bird_data, split by equal number of rows in each data frame

split_data <- list(wild_bird_data[1:73,], wild_bird_data[74:146,])
split_data

[[1]]
# A tibble: 73 × 2
   `Wet body weight [g]` `Population size`
                   <dbl>             <dbl>
 1                  5.46           532194.
 2                  7.76          3165107.
 3                  8.64          2592997.
 4                 10.7           3524193.
 5                  7.42           389806.
 6                  9.12           604766.
 7                  8.04           192361.
 8                  8.70           250452.
 9                  8.89            16997.
10                  9.52              595.
# ℹ 63 more rows

[[2]]
# A tibble: 73 × 2
   `Wet body weight [g]` `Population size`
                   <dbl>             <dbl>
 1                  67.1              59.1
 2                  82.9            2008. 
 3                  64.7            8622. 
 4                  66.5           21762. 
 5                  72.5           36109. 
 6                 128.           279260. 
 7                 135.            90664. 
 8                 116.            32206. 
 9                 111.            30830. 
10                 105.            20287. 
# ℹ 63 more rows
…
