Challenge 4
…
Code

fed %>% count(Year)

# A tibble: 64 × 2
   Year      n
   <chr> <int>
 1 1954      6
 2 1955     12
 3 1956     12
 4 1957     12
 5 1958     12
 6 1959     12
 7 1960     12
 8 1961     12
 9 1962     12
10 1963     12
# ℹ 54 more rows

Dates can be added, so it should be character not factor. I also fill the several columns.

Below code: I just filter Federal Funds Target Rate without NA

Code

TargetRate <- fed %>% 
  filter(!is.na(`Federal Funds Target Rate`)) %>% 
  select(-c(`Federal Funds Upper Target`, `Federal Funds Lower Target`))

TargetRate

# A tibble: 462 × 8
   Year  Month Day   `Federal Funds Target Rate` `Effective Federal Funds Rate`
   <chr> <chr> <chr>                       <dbl>                          <dbl>
 1 1982  9     27                           10.2                          10.3 
 2 1982  10    1                            10                             9.71
 3 1982  10    7                             9.5                           9.71
 4 1982  11    1                             9.5                           9.2 
 5 1982  11    19                            9                             9.2 
 6 1982  12    1                             9                             8.95
 7 1982  12    14                            8.5                           8.95
 8 1983  1     1                             8.5                           8.68
 9 1983  2     1                             8.5                           8.51
10 1983  3     1                             8.5                           8.77
# ℹ 452 more rows
# ℹ 3 more variables: `Real GDP (Percent Change)` <dbl>,
#   `Unemployment Rate` <dbl>, `Inflation Rate` <dbl>
Code

#newfed <- fed %>% select(-c(`Federal Funds Target Rate`,  `Federal Funds Upper Target`, `Federal Funds Lower Target`)) 

#newfed

Code

hotel <- read_csv("_data/hotel_bookings.csv")

#Find unique values in all columns
#hotel %>% lapply(unique)
hotel

# A tibble: 119,390 × 32
   hotel        is_canceled lead_time arrival_date_year arrival_date_month
   <chr>              <dbl>     <dbl>             <dbl> <chr>             
 1 Resort Hotel           0       342              2015 July              
 2 Resort Hotel           0       737              2015 July              
 3 Resort Hotel           0         7              2015 July              
 4 Resort Hotel           0        13              2015 July              
 5 Resort Hotel           0        14              2015 July              
 6 Resort Hotel           0        14              2015 July              
 7 Resort Hotel           0         0              2015 July              
 8 Resort Hotel           0         9              2015 July              
 9 Resort Hotel           1        85              2015 July              
10 Resort Hotel           1        75              2015 July              
# ℹ 119,380 more rows
# ℹ 27 more variables: arrival_date_week_number <dbl>,
#   arrival_date_day_of_month <dbl>, stays_in_weekend_nights <dbl>,
#   stays_in_week_nights <dbl>, adults <dbl>, children <dbl>, babies <dbl>,
#   meal <chr>, country <chr>, market_segment <chr>,
#   distribution_channel <chr>, is_repeated_guest <dbl>,
#   previous_cancellations <dbl>, previous_bookings_not_canceled <dbl>, …
…
hotelclean <- hotelclean %>%
  mutate_at(c(4,7,32,3), as.character) %>% select(-company) %>% mutate(state = case_when
         (is_canceled == "1" ~ "canceled",
          is_canceled == "0" ~ "regular")) %>% 
  select(-is_canceled) 

#separate reservation status date into year, month, date columns

hotelclean <- hotelclean %>% separate(reservation_status_date, into= c("reservation_status_year","reservation_month", "reservation_status_date"), sep="-")

hotelclean 

# A tibble: 119,390 × 33
   hotel   lead_time arrival_date_year arrival_date_month arrival_date_week_nu…¹
   <fct>   <chr>     <chr>             <fct>                               <int>
 1 Resort… 342       2015              July                                   27
 2 Resort… 737       2015              July                                   27
 3 Resort… 7         2015              July                                   27
 4 Resort… 13        2015              July                                   27
 5 Resort… 14        2015              July                                   27
 6 Resort… 14        2015              July                                   27
 7 Resort… 0         2015              July                                   27
 8 Resort… 9         2015              July                                   27
 9 Resort… 85        2015              July                                   27
10 Resort… 75        2015              July                                   27
# ℹ 119,380 more rows
# ℹ abbreviated name: ¹​arrival_date_week_number
# ℹ 28 more variables: arrival_date_day_of_month <chr>,
#   stays_in_weekend_nights <int>, stays_in_week_nights <int>, adults <int>,
#   children <int>, babies <int>, meal <fct>, country <fct>,
#   market_segment <fct>, distribution_channel <fct>, is_repeated_guest <int>,
#   previous_cancellations <int>, previous_bookings_not_canceled <int>, …
…
