Challenge 8 Solutions
…
debt <- debt_in_trillions

#Convert quarters to dates
debt <- debt %>%
  mutate(Date=parse_date_time(`Year and Quarter`, orders="yq"))

# to simplify, remove year and quarters
debt <- debt %>%
   select(-contains("Year")) %>%
  # move Date to front
select(Date, 1:last_col(0))
# view data
debt

# A tibble: 74 x 8
   Date                Mortgage `HE Revolving` `Auto Loan` `Credit Card`
   <dttm>                 <dbl>          <dbl>       <dbl>         <dbl>
 1 2003-01-01 00:00:00     4.94          0.242       0.641         0.688
 2 2003-04-01 00:00:00     5.08          0.26        0.622         0.693
 3 2003-07-01 00:00:00     5.18          0.269       0.684         0.693
 4 2003-10-01 00:00:00     5.66          0.302       0.704         0.698
 5 2004-01-01 00:00:00     5.84          0.328       0.72          0.695
 6 2004-04-01 00:00:00     5.97          0.367       0.743         0.697
 7 2004-07-01 00:00:00     6.21          0.426       0.751         0.706
 8 2004-10-01 00:00:00     6.36          0.468       0.728         0.717
 9 2005-01-01 00:00:00     6.51          0.502       0.725         0.71 
10 2005-04-01 00:00:00     6.70          0.528       0.774         0.717
# i 64 more rows
# i 3 more variables: `Student Loan` <dbl>, Other <dbl>, Total <dbl>
fed <-FedFundsRate
#create calendar date column out of original columns
fed_calendar_date <- paste(fed$Year, fed$Month, fed$Day)
# mutate new column, create new calendar date column
fed <- fed %>%
  mutate(Date = as.Date(fed_calendar_date,format = "%Y %m %d"), .before=`Year`)
View()

Error in as.data.frame(x): argument "x" is missing, with no default

# filter out old date columns
fed <- fed[-c(2,3,4)]
fed

# A tibble: 904 x 8
   Date       `Federal Funds Target Rate` `Federal Funds Upper Target`
   <date>                           <dbl>                        <dbl>
 1 1954-07-01                          NA                           NA
 2 1954-08-01                          NA                           NA
 3 1954-09-01                          NA                           NA
 4 1954-10-01                          NA                           NA
 5 1954-11-01                          NA                           NA
 6 1954-12-01                          NA                           NA
 7 1955-01-01                          NA                           NA
 8 1955-02-01                          NA                           NA
 9 1955-03-01                          NA                           NA
10 1955-04-01                          NA                           NA
# i 894 more rows
# i 5 more variables: `Federal Funds Lower Target` <dbl>,
#   `Effective Federal Funds Rate` <dbl>, `Real GDP (Percent Change)` <dbl>,
#   `Unemployment Rate` <dbl>, `Inflation Rate` <dbl>

Join Data

joined <- fed %>%
  right_join(debt, by=join_by(Date)) %>%
  rename(Other_Debt=Other,Total_Debt=Total)
joined

# A tibble: 74 x 15
   Date                `Federal Funds Target Rate` `Federal Funds Upper Target`
   <dttm>                                    <dbl>                        <dbl>
 1 2003-01-01 00:00:00                        1.25                           NA
 2 2003-04-01 00:00:00                        1.25                           NA
 3 2003-07-01 00:00:00                        1                              NA
 4 2003-10-01 00:00:00                        1                              NA
 5 2004-01-01 00:00:00                        1                              NA
 6 2004-04-01 00:00:00                        1                              NA
 7 2004-07-01 00:00:00                        1.25                           NA
 8 2004-10-01 00:00:00                        1.75                           NA
 9 2005-01-01 00:00:00                        2.25                           NA
10 2005-04-01 00:00:00                        2.75                           NA
# i 64 more rows
# i 12 more variables: `Federal Funds Lower Target` <dbl>,
#   `Effective Federal Funds Rate` <dbl>, `Real GDP (Percent Change)` <dbl>,
#   `Unemployment Rate` <dbl>, `Inflation Rate` <dbl>, Mortgage <dbl>,
#   `HE Revolving` <dbl>, `Auto Loan` <dbl>, `Credit Card` <dbl>,
#   `Student Loan` <dbl>, Other_Debt <dbl>, Total_Debt <dbl>

# filter date so data is present for both sets
joined <- joined %>%
  filter(Date < '2017-01-01')
joined

# A tibble: 57 x 15
   Date                `Federal Funds Target Rate` `Federal Funds Upper Target`
   <dttm>                                    <dbl>                        <dbl>
 1 2003-01-01 00:00:00                        1.25                           NA
 2 2003-04-01 00:00:00                        1.25                           NA
 3 2003-07-01 00:00:00                        1                              NA
 4 2003-10-01 00:00:00                        1                              NA
 5 2004-01-01 00:00:00                        1                              NA
 6 2004-04-01 00:00:00                        1                              NA
 7 2004-07-01 00:00:00                        1.25                           NA
 8 2004-10-01 00:00:00                        1.75                           NA
 9 2005-01-01 00:00:00                        2.25                           NA
10 2005-04-01 00:00:00                        2.75                           NA
# i 47 more rows
# i 12 more variables: `Federal Funds Lower Target` <dbl>,
#   `Effective Federal Funds Rate` <dbl>, `Real GDP (Percent Change)` <dbl>,
#   `Unemployment Rate` <dbl>, `Inflation Rate` <dbl>, Mortgage <dbl>,
#   `HE Revolving` <dbl>, `Auto Loan` <dbl>, `Credit Card` <dbl>,
#   `Student Loan` <dbl>, Other_Debt <dbl>, Total_Debt <dbl>
…
