Challenge 1
…
We can see that each of the first 6 rows have data from the Area Afghanistan. Using the distinct and select functions, lets see a full list of all the Areas for this data

Code

distinct(select(birds_from_csv, "Area"))

# A tibble: 248 × 1
   Area               
   <chr>              
 1 Afghanistan        
 2 Albania            
 3 Algeria            
 4 American Samoa     
 5 Angola             
 6 Antigua and Barbuda
 7 Argentina          
 8 Armenia            
 9 Aruba              
10 Australia          
# ℹ 238 more rows
…
# A tibble: 5 × 1
  Item                  
  <chr>                 
1 Chickens              
2 Ducks                 
3 Geese and guinea fowls
4 Turkeys               
5 Pigeons, other birds  

Code

distinct(select(birds_from_csv, "Year"))

# A tibble: 58 × 1
    Year
   <dbl>
 1  1961
 2  1962
 3  1963
 4  1964
 5  1965
 6  1966
 7  1967
 8  1968
 9  1969
10  1970
# ℹ 48 more rows
…
