Challenge 7 Solution
…
hotel_bookings <- hotel_bookings %>%
                mutate(
                  arrival_date = make_date(arrival_date_year, arrival_date_month)
                ) 

hotel_bookings <- select(hotel_bookings,-c(arrival_date_month, arrival_date_year))

hotel_bookings

# A tibble: 119,390 × 31
   hotel     is_canceled lead_time arrival_date_week_nu…¹ arrival_date_day_of_…²
   <chr>           <dbl>     <dbl>                  <dbl>                  <dbl>
 1 Resort H…           0       342                     27                      1
 2 Resort H…           0       737                     27                      1
 3 Resort H…           0         7                     27                      1
 4 Resort H…           0        13                     27                      1
 5 Resort H…           0        14                     27                      1
 6 Resort H…           0        14                     27                      1
 7 Resort H…           0         0                     27                      1
 8 Resort H…           0         9                     27                      1
 9 Resort H…           1        85                     27                      1
10 Resort H…           1        75                     27                      1
# ℹ 119,380 more rows
# ℹ abbreviated names: ¹​arrival_date_week_number, ²​arrival_date_day_of_month
# ℹ 26 more variables: stays_in_weekend_nights <dbl>,
#   stays_in_week_nights <dbl>, adults <dbl>, children <dbl>, babies <dbl>,
#   meal <chr>, country <chr>, market_segment <chr>,
#   distribution_channel <chr>, is_repeated_guest <dbl>,
#   previous_cancellations <dbl>, previous_bookings_not_canceled <dbl>, …
…
