Challenge 2 Submission
…
library(tidyverse)
library(dplyr)

knitr::opts_chunk$set(echo = TRUE, warning=FALSE, message=FALSE)

Read in the Data

For this challenge, I will read in the data set railroad_2012_clean_county.csv.

Code

  railroad <- readr::read_csv("_data/railroad_2012_clean_county.csv")
  railroad

# A tibble: 2,930 × 3
   state county               total_employees
   <chr> <chr>                          <dbl>
 1 AE    APO                                2
 2 AK    ANCHORAGE                          7
 3 AK    FAIRBANKS NORTH STAR               2
 4 AK    JUNEAU                             3
 5 AK    MATANUSKA-SUSITNA                  2
 6 AK    SITKA                              1
 7 AK    SKAGWAY MUNICIPALITY              88
 8 AL    AUTAUGA                          102
 9 AL    BALDWIN                          143
10 AL    BARBOUR                            1
# ℹ 2,920 more rows
…
The standard deviation of 284 suggests high variance in the numberof employees by location. The IQR of 58 tells us that 50% of the employee numer data is clustered within 29 employees more or less than our median of 21.

Next, let’s look at how many employees are in each state.

Code

  railroad %>%
  group_by(state) %>%
  summarize(employees_per_state=sum(total_employees))  

# A tibble: 53 × 2
   state employees_per_state
   <chr>               <dbl>
 1 AE                      2
 2 AK                    103
 3 AL                   4257
 4 AP                      1
 5 AR                   3871
 6 AZ                   3153
 7 CA                  13137
 8 CO                   3650
 9 CT                   2592
10 DC                    279
# ℹ 43 more rows

Now, let’s look at the statewide average numbers of employees (from all locations within each state), from highest to lowest.

Code

  railroad %>%
  group_by(state) %>%
  summarize(avg_employees_per_state=(mean(total_employees)))

# A tibble: 53 × 2
   state avg_employees_per_state
   <chr>                   <dbl>
 1 AE                        2  
 2 AK                       17.2
 3 AL                       63.5
 4 AP                        1  
 5 AR                       53.8
 6 AZ                      210. 
 7 CA                      239. 
 8 CO                       64.0
 9 CT                      324  
10 DC                      279  
# ℹ 43 more rows
…
