Final Project
…
    Published

      July 13, 2023

Code

setwd("C:/Users/chion/OneDrive/Desktop/DACSS 601/DACSS_601_Summer2023_Sec1/posts")
library(readxl)
library(tidyverse)
library(dplyr)
library(ggplot2)
pseo_ma_SANDBOX <- read_excel("datafolderMoiraChiong/pseo_ma_SANDBOX.xlsx")
pseo_ma_SANDBOX

# A tibble: 12,639 x 48
   agg_level_pseo label_agg_level_pseo   inst_level label_inst_level institution
            <dbl> <chr>                  <chr>      <chr>            <chr>      
 1             38 "Degree Level *\r\nIn~ I          Institution      00216100   
 2             38 "Degree Level *\r\nIn~ I          Institution      00216100   
 3             38 "Degree Level *\r\nIn~ I          Institution      00216100   
 4             38 "Degree Level *\r\nIn~ I          Institution      00216100   
 5             38 "Degree Level *\r\nIn~ I          Institution      00216100   
 6             38 "Degree Level *\r\nIn~ I          Institution      00216100   
 7             38 "Degree Level *\r\nIn~ I          Institution      00216700   
 8             38 "Degree Level *\r\nIn~ I          Institution      00216700   
 9             38 "Degree Level *\r\nIn~ I          Institution      00216700   
10             38 "Degree Level *\r\nIn~ I          Institution      00216800   
# i 12,629 more rows
# i 43 more variables: label_institution <chr>,
#   `Degree\r\nAward\r\nLevel` <chr>, label_degree_level <chr>,
#   cip_level <chr>, label_cip_level <chr>, cipcode <chr>, label_cipcode <chr>,
#   grad_cohort <chr>, label_grad_cohort <chr>, grad_cohort_years <chr>,
#   label_grad_cohort_years <chr>, geo_level <chr>, label_geo_level <chr>,
#   geography <chr>, label_geography <chr>, ind_level <chr>, ...
…
Code

library(dplyr)
pseo_filtered_three <-filter(pseo_ma_SANDBOX, pseo_ma_SANDBOX$institution=="00222100" & pseo_ma_SANDBOX$label_degree_level=="Baccalaureate" & pseo_ma_SANDBOX$cip_level=="2" & pseo_ma_SANDBOX$label_grad_cohort== "All Cohorts")

# Bachelor's Earnings by CIP Code, UMass Amherst
pseo_filtered_three %>%
group_by(pseo_filtered_three$label_cipcode)

# A tibble: 26 x 49
# Groups:   pseo_filtered_three$label_cipcode [26]
   agg_level_pseo label_agg_level_pseo   inst_level label_inst_level institution
            <dbl> <chr>                  <chr>      <chr>            <chr>      
 1             40 "Degree Level * CIP\r~ I          Institution      00222100   
 2             40 "Degree Level * CIP\r~ I          Institution      00222100   
 3             40 "Degree Level * CIP\r~ I          Institution      00222100   
 4             40 "Degree Level * CIP\r~ I          Institution      00222100   
 5             40 "Degree Level * CIP\r~ I          Institution      00222100   
 6             40 "Degree Level * CIP\r~ I          Institution      00222100   
 7             40 "Degree Level * CIP\r~ I          Institution      00222100   
 8             40 "Degree Level * CIP\r~ I          Institution      00222100   
 9             40 "Degree Level * CIP\r~ I          Institution      00222100   
10             40 "Degree Level * CIP\r~ I          Institution      00222100   
# i 16 more rows
# i 44 more variables: label_institution <chr>,
#   `Degree\r\nAward\r\nLevel` <chr>, label_degree_level <chr>,
#   cip_level <chr>, label_cip_level <chr>, cipcode <chr>, label_cipcode <chr>,
#   grad_cohort <chr>, label_grad_cohort <chr>, grad_cohort_years <chr>,
#   label_grad_cohort_years <chr>, geo_level <chr>, label_geo_level <chr>,
#   geography <chr>, label_geography <chr>, ind_level <chr>, ...
…
