HW2 - World Happiness Data
…
[[1]]
# A tibble: 158 × 13
   Country     Region  Rank Score Stand…¹ GDP_p…² Family Life_…³ Freedom Gover…⁴
   <chr>       <chr>  <dbl> <dbl>   <dbl>   <dbl>  <dbl>   <dbl>   <dbl>   <dbl>
 1 Switzerland Weste…     1  7.59  0.0341    1.40   1.35   0.941   0.666   0.420
 2 Iceland     Weste…     2  7.56  0.0488    1.30   1.40   0.948   0.629   0.141
 3 Denmark     Weste…     3  7.53  0.0333    1.33   1.36   0.875   0.649   0.484
 4 Norway      Weste…     4  7.52  0.0388    1.46   1.33   0.885   0.670   0.365
 5 Canada      North…     5  7.43  0.0355    1.33   1.32   0.906   0.633   0.330
 6 Finland     Weste…     6  7.41  0.0314    1.29   1.32   0.889   0.642   0.414
 7 Netherlands Weste…     7  7.38  0.0280    1.33   1.28   0.893   0.616   0.318
 8 Sweden      Weste…     8  7.36  0.0316    1.33   1.29   0.911   0.660   0.438
 9 New Zealand Austr…     9  7.29  0.0337    1.25   1.32   0.908   0.639   0.429
10 Australia   Austr…    10  7.28  0.0408    1.33   1.31   0.932   0.651   0.356
# … with 148 more rows, 3 more variables: Generosity <dbl>,
#   Dystopia_Residual <dbl>, Year <int>, and abbreviated variable names
#   ¹​`Standard Error`, ²​GDP_per_Capita, ³​Life_Expectancy,
#   ⁴​Government_Corruption

[[2]]
# A tibble: 157 × 14
   Country     Region  Rank Score Lower…¹ Upper…² GDP_p…³ Family Life_…⁴ Freedom
   <chr>       <chr>  <dbl> <dbl>   <dbl>   <dbl>   <dbl>  <dbl>   <dbl>   <dbl>
 1 Denmark     Weste…     1  7.53    7.46    7.59    1.44   1.16   0.795   0.579
 2 Switzerland Weste…     2  7.51    7.43    7.59    1.53   1.15   0.863   0.586
 3 Iceland     Weste…     3  7.50    7.33    7.67    1.43   1.18   0.867   0.566
 4 Norway      Weste…     4  7.50    7.42    7.58    1.58   1.13   0.796   0.596
 5 Finland     Weste…     5  7.41    7.35    7.48    1.41   1.13   0.811   0.571
 6 Canada      North…     6  7.40    7.34    7.47    1.44   1.10   0.828   0.574
 7 Netherlands Weste…     7  7.34    7.28    7.39    1.46   1.03   0.812   0.552
 8 New Zealand Austr…     8  7.33    7.26    7.40    1.36   1.17   0.831   0.581
 9 Australia   Austr…     9  7.31    7.24    7.38    1.44   1.10   0.851   0.568
10 Sweden      Weste…    10  7.29    7.23    7.36    1.45   1.09   0.831   0.582
# … with 147 more rows, 4 more variables: Government_Corruption <dbl>,
#   Generosity <dbl>, Dystopia_Residual <dbl>, Year <int>, and abbreviated
#   variable names ¹​`Lower Confidence Interval`, ²​`Upper Confidence Interval`,
#   ³​GDP_per_Capita, ⁴​Life_Expectancy

[[3]]
# A tibble: 155 × 13
   Country     Rank Score Whisk…¹ Whisk…² GDP_p…³ Family Life_…⁴ Freedom Gener…⁵
   <chr>      <dbl> <dbl>   <dbl>   <dbl>   <dbl>  <dbl>   <dbl>   <dbl>   <dbl>
 1 Norway         1  7.54    7.59    7.48    1.62   1.53   0.797   0.635   0.362
 2 Denmark        2  7.52    7.58    7.46    1.48   1.55   0.793   0.626   0.355
 3 Iceland        3  7.50    7.62    7.39    1.48   1.61   0.834   0.627   0.476
 4 Switzerla…     4  7.49    7.56    7.43    1.56   1.52   0.858   0.620   0.291
 5 Finland        5  7.47    7.53    7.41    1.44   1.54   0.809   0.618   0.245
 6 Netherlan…     6  7.38    7.43    7.33    1.50   1.43   0.811   0.585   0.470
 7 Canada         7  7.32    7.38    7.25    1.48   1.48   0.835   0.611   0.436
 8 New Zeala…     8  7.31    7.38    7.25    1.41   1.55   0.817   0.614   0.500
 9 Sweden         9  7.28    7.34    7.22    1.49   1.48   0.831   0.613   0.385
10 Australia     10  7.28    7.36    7.21    1.48   1.51   0.844   0.602   0.478
# … with 145 more rows, 3 more variables: Government_Corruption <dbl>,
#   Dystopia_Residual <dbl>, Year <int>, and abbreviated variable names
#   ¹​Whisker.high, ²​Whisker.low, ³​GDP_per_Capita, ⁴​Life_Expectancy, ⁵​Generosity

[[4]]
# A tibble: 156 × 10
    Rank Country     Score GDP_pe…¹ Family Life_…² Freedom Gener…³ Gover…⁴  Year
   <dbl> <chr>       <dbl>    <dbl>  <dbl>   <dbl>   <dbl>   <dbl> <chr>   <int>
 1     1 Finland      7.63     1.30   1.59   0.874   0.681   0.202 0.393    2018
 2     2 Norway       7.59     1.46   1.58   0.861   0.686   0.286 0.340    2018
 3     3 Denmark      7.56     1.35   1.59   0.868   0.683   0.284 0.408    2018
 4     4 Iceland      7.50     1.34   1.64   0.914   0.677   0.353 0.138    2018
 5     5 Switzerland  7.49     1.42   1.55   0.927   0.66    0.256 0.357    2018
 6     6 Netherlands  7.44     1.36   1.49   0.878   0.638   0.333 0.295    2018
 7     7 Canada       7.33     1.33   1.53   0.896   0.653   0.321 0.291    2018
 8     8 New Zealand  7.32     1.27   1.60   0.876   0.669   0.365 0.389    2018
 9     9 Sweden       7.31     1.36   1.50   0.913   0.659   0.285 0.383    2018
10    10 Australia    7.27     1.34   1.57   0.91    0.647   0.361 0.302    2018
# … with 146 more rows, and abbreviated variable names ¹​GDP_per_Capita,
#   ²​Life_Expectancy, ³​Generosity, ⁴​Government_Corruption

[[5]]
# A tibble: 156 × 10
    Rank Country     Score GDP_pe…¹ Family Life_…² Freedom Gener…³ Gover…⁴  Year
   <dbl> <chr>       <dbl>    <dbl>  <dbl>   <dbl>   <dbl>   <dbl>   <dbl> <int>
 1     1 Finland      7.77     1.34   1.59   0.986   0.596   0.153   0.393  2019
 2     2 Denmark      7.6      1.38   1.57   0.996   0.592   0.252   0.41   2019
 3     3 Norway       7.55     1.49   1.58   1.03    0.603   0.271   0.341  2019
 4     4 Iceland      7.49     1.38   1.62   1.03    0.591   0.354   0.118  2019
 5     5 Netherlands  7.49     1.40   1.52   0.999   0.557   0.322   0.298  2019
 6     6 Switzerland  7.48     1.45   1.53   1.05    0.572   0.263   0.343  2019
 7     7 Sweden       7.34     1.39   1.49   1.01    0.574   0.267   0.373  2019
 8     8 New Zealand  7.31     1.30   1.56   1.03    0.585   0.33    0.38   2019
 9     9 Canada       7.28     1.36   1.50   1.04    0.584   0.285   0.308  2019
10    10 Austria      7.25     1.38   1.48   1.02    0.532   0.244   0.226  2019
# … with 146 more rows, and abbreviated variable names ¹​GDP_per_Capita,
#   ²​Life_Expectancy, ³​Generosity, ⁴​Government_Corruption

[[6]]
# A tibble: 153 × 21
   Country Regio…¹ Score Stand…² upper…³ lower…⁴ Logge…⁵ Socia…⁶ Healt…⁷ Freed…⁸
   <chr>   <chr>   <dbl>   <dbl>   <dbl>   <dbl>   <dbl>   <dbl>   <dbl>   <dbl>
 1 Finland Wester…  7.81  0.0312    7.87    7.75    10.6   0.954    71.9   0.949
 2 Denmark Wester…  7.65  0.0335    7.71    7.58    10.8   0.956    72.4   0.951
 3 Switze… Wester…  7.56  0.0350    7.63    7.49    11.0   0.943    74.1   0.921
 4 Iceland Wester…  7.50  0.0596    7.62    7.39    10.8   0.975    73     0.949
 5 Norway  Wester…  7.49  0.0348    7.56    7.42    11.1   0.952    73.2   0.956
 6 Nether… Wester…  7.45  0.0278    7.50    7.39    10.8   0.939    72.3   0.909
 7 Sweden  Wester…  7.35  0.0362    7.42    7.28    10.8   0.926    72.6   0.939
 8 New Ze… North …  7.30  0.0395    7.38    7.22    10.5   0.949    73.2   0.936
 9 Austria Wester…  7.29  0.0334    7.36    7.23    10.7   0.928    73.0   0.900
10 Luxemb… Wester…  7.24  0.0309    7.30    7.18    11.5   0.907    72.6   0.906
# … with 143 more rows, 11 more variables: `Perceptions of corruption` <dbl>,
#   `Ladder score in Dystopia` <dbl>, GDP_per_Capita <dbl>, Family <dbl>,
#   Life_Expectancy <dbl>, Freedom <dbl>, Generosity <dbl>,
#   Government_Corruption <dbl>, Dystopia_Residual <dbl>, Year <int>,
#   Rank <dbl>, and abbreviated variable names ¹​`Regional indicator`,
#   ²​`Standard error of ladder score`, ³​upperwhisker, ⁴​lowerwhisker,
#   ⁵​`Logged GDP per capita`, ⁶​`Social support`, ⁷​`Healthy life expectancy`, …

[[7]]
# A tibble: 149 × 21
   Country Regio…¹ Score Stand…² upper…³ lower…⁴ Logge…⁵ Socia…⁶ Healt…⁷ Freed…⁸
   <chr>   <chr>   <dbl>   <dbl>   <dbl>   <dbl>   <dbl>   <dbl>   <dbl>   <dbl>
 1 Finland Wester…  7.84   0.032    7.90    7.78    10.8   0.954    72     0.949
 2 Denmark Wester…  7.62   0.035    7.69    7.55    10.9   0.954    72.7   0.946
 3 Switze… Wester…  7.57   0.036    7.64    7.5     11.1   0.942    74.4   0.919
 4 Iceland Wester…  7.55   0.059    7.67    7.44    10.9   0.983    73     0.955
 5 Nether… Wester…  7.46   0.027    7.52    7.41    10.9   0.942    72.4   0.913
 6 Norway  Wester…  7.39   0.035    7.46    7.32    11.1   0.954    73.3   0.96 
 7 Sweden  Wester…  7.36   0.036    7.43    7.29    10.9   0.934    72.7   0.945
 8 Luxemb… Wester…  7.32   0.037    7.40    7.25    11.6   0.908    72.6   0.907
 9 New Ze… North …  7.28   0.04     7.36    7.20    10.6   0.948    73.4   0.929
10 Austria Wester…  7.27   0.036    7.34    7.20    10.9   0.934    73.3   0.908
# … with 139 more rows, 11 more variables: `Perceptions of corruption` <dbl>,
#   `Ladder score in Dystopia` <dbl>, GDP_per_Capita <dbl>, Family <dbl>,
#   Life_Expectancy <dbl>, Freedom <dbl>, Generosity <dbl>,
#   Government_Corruption <dbl>, Dystopia_Residual <dbl>, Year <int>,
#   Rank <dbl>, and abbreviated variable names ¹​`Regional indicator`,
#   ²​`Standard error of ladder score`, ³​upperwhisker, ⁴​lowerwhisker,
#   ⁵​`Logged GDP per capita`, ⁶​`Social support`, ⁷​`Healthy life expectancy`, …

[[8]]
# A tibble: 147 × 13
    Rank Country    Score Whisk…¹ Whisk…² Dysto…³ GDP_p…⁴ Family Life_…⁵ Freedom
   <dbl> <chr>      <dbl>   <dbl>   <dbl>   <dbl>   <dbl>  <dbl>   <dbl>   <dbl>
 1     1 Finland     7.82    7.89    7.76    2.52    1.89   1.26   0.775   0.736
 2     2 Denmark     7.64    7.71    7.56    2.23    1.95   1.24   0.777   0.719
 3     3 Iceland     7.56    7.65    7.46    2.32    1.94   1.32   0.803   0.718
 4     4 Switzerla…  7.51    7.59    7.44    2.15    2.03   1.23   0.822   0.677
 5     5 Netherlan…  7.42    7.47    7.36    2.14    1.94   1.21   0.787   0.651
 6     6 Luxembour…  7.40    7.50    7.31    2.04    2.21   1.16   0.79    0.7  
 7     7 Sweden      7.38    7.45    7.32    2.00    1.92   1.20   0.803   0.724
 8     8 Norway      7.36    7.44    7.29    1.92    2.00   1.24   0.786   0.728
 9     9 Israel      7.36    7.43    7.30    2.63    1.83   1.22   0.818   0.568
10    10 New Zeala…  7.2     7.28    7.12    1.95    1.85   1.24   0.752   0.68 
# … with 137 more rows, 3 more variables: Generosity <dbl>,
#   Government_Corruption <dbl>, Year <dbl>, and abbreviated variable names
#   ¹​`Whisker-high`, ²​`Whisker-low`, ³​Dystopia_Residual, ⁴​GDP_per_Capita,
#   ⁵​Life_Expectancy
…
# Finally, combine all the selected data boxes together
all_years_selected <- bind_rows(Happy_2015_selected, Happy_2016_selected, Happy_2017_selected,
                                Happy_2018_selected, Happy_2019_selected, Happy_2020_selected,
                                Happy_2021_selected, Happy_2022_selected)

all_years_selected <- all_years_selected %>%
  mutate(Rank = as.integer(Rank))

all_years_selected

# A tibble: 1,231 × 10
   Country      Year Score  Rank GDP_pe…¹ Family Life_…² Freedom Gener…³ Gover…⁴
   <chr>       <dbl> <dbl> <int>    <dbl>  <dbl>   <dbl>   <dbl>   <dbl>   <dbl>
 1 Switzerland  2015  7.59     1     1.40   1.35   0.941   0.666   0.297   0.420
 2 Iceland      2015  7.56     2     1.30   1.40   0.948   0.629   0.436   0.141
 3 Denmark      2015  7.53     3     1.33   1.36   0.875   0.649   0.341   0.484
 4 Norway       2015  7.52     4     1.46   1.33   0.885   0.670   0.347   0.365
 5 Canada       2015  7.43     5     1.33   1.32   0.906   0.633   0.458   0.330
 6 Finland      2015  7.41     6     1.29   1.32   0.889   0.642   0.234   0.414
 7 Netherlands  2015  7.38     7     1.33   1.28   0.893   0.616   0.476   0.318
 8 Sweden       2015  7.36     8     1.33   1.29   0.911   0.660   0.363   0.438
 9 New Zealand  2015  7.29     9     1.25   1.32   0.908   0.639   0.475   0.429
10 Australia    2015  7.28    10     1.33   1.31   0.932   0.651   0.436   0.356
# … with 1,221 more rows, and abbreviated variable names ¹​GDP_per_Capita,
#   ²​Life_Expectancy, ³​Generosity, ⁴​Government_Corruption
…
