Homework 2
…
Read in a dataset. It’s strongly recommended that you choose a dataset you’re considering using for the final project. If you decide to use one of the datasets we have provided, please use a challenging dataset - check with us if you are not sure.

Code

setwd("C:/Users/chion/OneDrive/Desktop/DACSS 601/DACSS_601_Summer2023_Sec1/posts")
library(readxl)

Warning: package 'readxl' was built under R version 4.1.3

Code

pseo_ma_SANDBOX <- read_excel("pseo_ma_SANDBOX.xlsx")
pseo_ma_SANDBOX

# A tibble: 12,639 x 48
   agg_level_pseo label_agg_level_pseo   inst_level label_inst_level institution
            <dbl> <chr>                  <chr>      <chr>            <chr>      
 1             38 "Degree Level *\r\nIn~ I          Institution      00216100   
 2             38 "Degree Level *\r\nIn~ I          Institution      00216100   
 3             38 "Degree Level *\r\nIn~ I          Institution      00216100   
 4             38 "Degree Level *\r\nIn~ I          Institution      00216100   
 5             38 "Degree Level *\r\nIn~ I          Institution      00216100   
 6             38 "Degree Level *\r\nIn~ I          Institution      00216100   
 7             38 "Degree Level *\r\nIn~ I          Institution      00216700   
 8             38 "Degree Level *\r\nIn~ I          Institution      00216700   
 9             38 "Degree Level *\r\nIn~ I          Institution      00216700   
10             38 "Degree Level *\r\nIn~ I          Institution      00216800   
# i 12,629 more rows
# i 43 more variables: label_institution <chr>,
#   `Degree\r\nAward\r\nLevel` <chr>, label_degree_level <chr>,
#   cip_level <chr>, label_cip_level <chr>, cipcode <chr>, label_cipcode <chr>,
#   grad_cohort <chr>, label_grad_cohort <chr>, grad_cohort_years <chr>,
#   label_grad_cohort_years <chr>, geo_level <chr>, label_geo_level <chr>,
#   geography <chr>, label_geography <chr>, ind_level <chr>, ...
…
