Homework 2
…
#Total medals won by teams
teams_medals_total <- medals %>%
  group_by(NOC) %>%
  summarise(total_medals = n()) %>%
  arrange(desc(total_medals))

#Top 50 countries(by total medals won) medal_type tally.
(teams_medals_tally <- inner_join(teams_medals_type,
                              teams_medals_total[1:50, ],
                              by = "NOC") %>%
    arrange(desc(total_medals)))

# A tibble: 150 × 4
# Groups:   NOC [50]
   NOC   Medal  count total_medals
   <fct> <fct>  <int>        <int>
 1 USA   Bronze  1358         5637
 2 USA   Gold    2638         5637
 3 USA   Silver  1641         5637
 4 URS   Bronze   689         2503
 5 URS   Gold    1082         2503
 6 URS   Silver   732         2503
 7 GER   Bronze   746         2165
 8 GER   Gold     745         2165
 9 GER   Silver   674         2165
10 GBR   Bronze   651         2068
# ℹ 140 more rows
…
We can see that USA has won the highest number of medals, more than double the number of medals won by Soviet Union.

Code

#Sport with events count
(sport_events <- olympics_data %>%
  distinct(Sport, Event) %>%
  group_by(Sport) %>%
  summarise(no_events = n()) %>%
  arrange(desc(no_events)))

# A tibble: 66 × 2
   Sport            no_events
   <fct>                <int>
 1 Athletics               83
 2 Shooting                83
 3 Swimming                55
 4 Cycling                 44
 5 Sailing                 38
 6 Wrestling               30
 7 Archery                 29
 8 Art Competitions        29
 9 Canoeing                27
10 Gymnastics              27
# ℹ 56 more rows
…
