Homework 3: Diving into Data on Atlantic Hurricanes from 1920-2020
…
Looks like Wind.speed.kmh and Pressure.inHg were removed successfully!

Tidying the Deaths column: changing “None” values to 0 and “Unknown” values to NA and changing Deaths column to read as a numeric value

Code

# change values that read in Deaths column as "None" to the number 0
atlantic_hurricanes12$Deaths <- str_replace(atlantic_hurricanes12$Deaths, "None", "0")
print(atlantic_hurricanes12)

# A tibble: 1,113 × 9
   Name  Duration Max.wind.speed.mph Max.pressure.hPa Deaths Damage Max.category
   <chr> <chr>                 <dbl>            <dbl> <chr>  <chr>         <dbl>
 1 One   June 16…                 90              980 0      <NA>              1
 2 One   June 16…                 90              980 0      <NA>              1
 3 Two   Septemb…                 80              985 215    $19 m…            1
 4 Four  Septemb…                 90              979 0      <NA>              1
 5 Three Septemb…                 80              987 0      <NA>              1
 6 Four  Septemb…                 80              986 0      <NA>              1
 7 Six   October…                 80              983 0      <NA>              1
 8 Five  October…                 80              983 0      <NA>              1
 9 <NA>  Septemb…                 85              980 Unkno… <NA>              1
10 Elev… Novembe…                 80              994 Unkno… <NA>              1
# ℹ 1,103 more rows
# ℹ 2 more variables: area <chr>, Start_Date <chr>

Code

# change values in Deaths column that read as "Unknown" to NA
atlantic_hurricanes12$Deaths <- na_if(atlantic_hurricanes12$Deaths, "Unknown")
print(atlantic_hurricanes12)

# A tibble: 1,113 × 9
   Name  Duration Max.wind.speed.mph Max.pressure.hPa Deaths Damage Max.category
   <chr> <chr>                 <dbl>            <dbl> <chr>  <chr>         <dbl>
 1 One   June 16…                 90              980 0      <NA>              1
 2 One   June 16…                 90              980 0      <NA>              1
 3 Two   Septemb…                 80              985 215    $19 m…            1
 4 Four  Septemb…                 90              979 0      <NA>              1
 5 Three Septemb…                 80              987 0      <NA>              1
 6 Four  Septemb…                 80              986 0      <NA>              1
 7 Six   October…                 80              983 0      <NA>              1
 8 Five  October…                 80              983 0      <NA>              1
 9 <NA>  Septemb…                 85              980 <NA>   <NA>              1
10 Elev… Novembe…                 80              994 <NA>   <NA>              1
# ℹ 1,103 more rows
# ℹ 2 more variables: area <chr>, Start_Date <chr>

Code

# change values in Deaths column that contain >1,000 to NA
atlantic_hurricanes12$Deaths <- na_if(atlantic_hurricanes12$Deaths, ">1,000")
print(atlantic_hurricanes12)

# A tibble: 1,113 × 9
   Name  Duration Max.wind.speed.mph Max.pressure.hPa Deaths Damage Max.category
   <chr> <chr>                 <dbl>            <dbl> <chr>  <chr>         <dbl>
 1 One   June 16…                 90              980 0      <NA>              1
 2 One   June 16…                 90              980 0      <NA>              1
 3 Two   Septemb…                 80              985 215    $19 m…            1
 4 Four  Septemb…                 90              979 0      <NA>              1
 5 Three Septemb…                 80              987 0      <NA>              1
 6 Four  Septemb…                 80              986 0      <NA>              1
 7 Six   October…                 80              983 0      <NA>              1
 8 Five  October…                 80              983 0      <NA>              1
 9 <NA>  Septemb…                 85              980 <NA>   <NA>              1
10 Elev… Novembe…                 80              994 <NA>   <NA>              1
# ℹ 1,103 more rows
# ℹ 2 more variables: area <chr>, Start_Date <chr>
…
