Challenge 8 Solution - SNL Gender Distribution Over Time
…
Analysis

As mentioned previously, my goal is to see how the gender demographics change over time. To do this, I will make a line plot with the x-axis representing the year, and the y-axis representing the proportion of a specific gender who made up the cast. Each line will represent a gender category.

gender_breakdown <- full_df %>%
  group_by(year, gender) %>%
  summarise(n_gender = n_distinct(aid)) %>%
  ungroup() %>%
  group_by(year) %>%
  mutate(prop_gender = n_gender / sum(n_gender))

# Show dataste
gender_breakdown

# A tibble: 95 × 4
# Groups:   year [46]
    year gender n_gender prop_gender
   <dbl> <chr>     <int>       <dbl>
 1  1975 female        3       0.333
 2  1975 male          6       0.667
 3  1976 female        3       0.375
 4  1976 male          5       0.625
 5  1977 female        3       0.333
 6  1977 male          6       0.667
 7  1978 female        3       0.333
 8  1978 male          6       0.667
 9  1979 female        3       0.2  
10  1979 male         12       0.8  
# ℹ 85 more rows
…
