Challenge 10 Solution - Purrr
…
My function numeric_summary accepts 2 arguments: the dataframe, and a numeric variable to summarize over. This function gives the minimum, 1st quartile, mean, median, 3rd quartile, maximum, and standard deviation of a numeric variable. I chose to make this function because while working on my project, I found it really annoying to copy/paste and reuse the same code over and over again, and figured it would be interesting to quickly create a function for this.

One thing to note is that I removed the functionality for the optional group_by argument. I spent way too long trying to add in a third argument to the group by, and trying to make it optional, but the pmap function kept returning odd errors. As a result, I decided to remove that from ability from the function.

Application

Again, I will use the birds.csv file, which is a collection of information about specific birds and their populations around the world at various points in time.

# Pull in data
birds <- read_csv(here("posts", "_data", "birds.csv"))

# View the data
birds

# A tibble: 30,977 × 14
   `Domain Code` Domain     `Area Code` Area  `Element Code` Element `Item Code`
   <chr>         <chr>            <dbl> <chr>          <dbl> <chr>         <dbl>
 1 QA            Live Anim…           2 Afgh…           5112 Stocks         1057
 2 QA            Live Anim…           2 Afgh…           5112 Stocks         1057
 3 QA            Live Anim…           2 Afgh…           5112 Stocks         1057
 4 QA            Live Anim…           2 Afgh…           5112 Stocks         1057
 5 QA            Live Anim…           2 Afgh…           5112 Stocks         1057
 6 QA            Live Anim…           2 Afgh…           5112 Stocks         1057
 7 QA            Live Anim…           2 Afgh…           5112 Stocks         1057
 8 QA            Live Anim…           2 Afgh…           5112 Stocks         1057
 9 QA            Live Anim…           2 Afgh…           5112 Stocks         1057
10 QA            Live Anim…           2 Afgh…           5112 Stocks         1057
# ℹ 30,967 more rows
# ℹ 7 more variables: Item <chr>, `Year Code` <dbl>, Year <dbl>, Unit <chr>,
#   Value <dbl>, Flag <chr>, `Flag Description` <chr>
…
