Matt Zambetti: HW3 Submission
…
Rows: 6704 Columns: 6
── Column specification ────────────────────────────────────────────────────────
Delimiter: ","
chr (3): Gender, Education Level, Job Title
dbl (3): Age, Years of Experience, Salary

ℹ Use `spec()` to retrieve the full column specification for this data.
ℹ Specify the column types or set `show_col_types = FALSE` to quiet this message.

Code

workers_tidy

# A tibble: 6,704 × 6
     Age Gender `Education Level` `Job Title`       `Years of Experience` Salary
   <dbl> <chr>  <chr>             <chr>                             <dbl>  <dbl>
 1    32 Male   Bachelor's        Software Engineer                     5  90000
 2    28 Female Master's          Data Analyst                          3  65000
 3    45 Male   PhD               Senior Manager                       15 150000
 4    36 Female Bachelor's        Sales Associate                       7  60000
 5    52 Male   Master's          Director                             20 200000
 6    29 Male   Bachelor's        Marketing Analyst                     2  55000
 7    42 Female Master's          Product Manager                      12 120000
 8    31 Male   Bachelor's        Sales Manager                         4  80000
 9    26 Female Bachelor's        Marketing Coordi…                     1  45000
10    38 Male   PhD               Senior Scientist                     10 110000
# ℹ 6,694 more rows
…
