Challenge 3 Submission
…
knitr::opts_chunk$set(echo = TRUE, warning=FALSE, message=FALSE)

Read in data

The data set I chose is:

eggs_tidy.csv ⭐⭐

Code

eggs_table <- read_csv("_data/eggs_tidy.csv")
eggs_table

# A tibble: 120 × 6
   month      year large_half_dozen large_dozen extra_large_half_dozen
   <chr>     <dbl>            <dbl>       <dbl>                  <dbl>
 1 January    2004             126         230                    132 
 2 February   2004             128.        226.                   134.
 3 March      2004             131         225                    137 
 4 April      2004             131         225                    137 
 5 May        2004             131         225                    137 
 6 June       2004             134.        231.                   137 
 7 July       2004             134.        234.                   137 
 8 August     2004             134.        234.                   137 
 9 September  2004             130.        234.                   136.
10 October    2004             128.        234.                   136.
# ℹ 110 more rows
# ℹ 1 more variable: extra_large_dozen <dbl>
…
Pivot the Data

Now we will pivot the data, and compare our pivoted data dimensions to the dimensions calculated above as a “sanity” check.

Challenge: Pivot the Chosen Data

Code

eggs_table %>%
  pivot_longer(
    cols= -c(year, month),
    names_to = "product",
    values_to = "count")

# A tibble: 480 × 4
   month     year product                count
   <chr>    <dbl> <chr>                  <dbl>
 1 January   2004 large_half_dozen        126 
 2 January   2004 large_dozen             230 
 3 January   2004 extra_large_half_dozen  132 
 4 January   2004 extra_large_dozen       230 
 5 February  2004 large_half_dozen        128.
 6 February  2004 large_dozen             226.
 7 February  2004 extra_large_half_dozen  134.
 8 February  2004 extra_large_dozen       230 
 9 March     2004 large_half_dozen        131 
10 March     2004 large_dozen             225 
# ℹ 470 more rows
…
