Matt Zambetti: Final Project Submission
…
Rows: 6704 Columns: 6
── Column specification ────────────────────────────────────────────────────────
Delimiter: ","
chr (3): Gender, Education Level, Job Title
dbl (3): Age, Years of Experience, Salary

ℹ Use `spec()` to retrieve the full column specification for this data.
ℹ Specify the column types or set `show_col_types = FALSE` to quiet this message.

Code

workers_tidy

# A tibble: 6,704 × 6
     Age Gender `Education Level` `Job Title`       `Years of Experience` Salary
   <dbl> <chr>  <chr>             <chr>                             <dbl>  <dbl>
 1    32 Male   Bachelor's        Software Engineer                     5  90000
 2    28 Female Master's          Data Analyst                          3  65000
 3    45 Male   PhD               Senior Manager                       15 150000
 4    36 Female Bachelor's        Sales Associate                       7  60000
 5    52 Male   Master's          Director                             20 200000
 6    29 Male   Bachelor's        Marketing Analyst                     2  55000
 7    42 Female Master's          Product Manager                      12 120000
 8    31 Male   Bachelor's        Sales Manager                         4  80000
 9    26 Female Bachelor's        Marketing Coordi…                     1  45000
10    38 Male   PhD               Senior Scientist                     10 110000
# ℹ 6,694 more rows
…
Similarly to the previous plot there are a lot less samples around where this plateau takes place. But there is even a smaller portion of samples for workers over 50. I think this is due to the fact that people are close to retiring and that people are getting promoted less and less as they approach this age. In my experience young professionals are able to make higher increases in pay more quickly the earlier they are in their career, then as they get olders, these promotions are harder to come by.

Industry Specific Analysis

Now, I want to focus on jobs that pertain to my career. I looked through all the jobs and picked out key words that were related to my career path. Below I have listed all of these.

Key words are: - Software - Engineer - Developer - Data

Code

field_jobs <- workers_tidy[grepl("software|engineer|developer|data",tolower(workers_tidy$`Job Title`)),]
field_jobs

# A tibble: 3,628 × 6
     Age Gender `Education Level` `Job Title`       `Years of Experience` Salary
   <dbl> <chr>  <chr>             <chr>                             <dbl>  <dbl>
 1    32 Male   Bachelor's        Software Engineer                     5  90000
 2    28 Female Master's          Data Analyst                          3  65000
 3    29 Male   Master's          Software Develop…                     3  75000
 4    39 Male   PhD               Senior Engineer                      12 115000
 5    25 Female Bachelor's        Data Entry Clerk                      0  35000
 6    37 Female Master's          Software Manager                     11 110000
 7    24 Male   Bachelor's        Junior Developer                      1  40000
 8    29 Male   Master's          Data Scientist                        3  75000
 9    42 Male   Master's          Project Engineer                     14 115000
10    30 Male   Bachelor's        Network Engineer                      3  60000
# ℹ 3,618 more rows
…
