Challenge 6 Submission
…
knitr::opts_chunk$set(echo = TRUE, warning=FALSE, message=FALSE)

Read in data

The data that I chose to read in was the RedFundsRate.csv

fed_rate ⭐⭐

fed_rate <- read_csv("_data/FedFundsRate.csv")

fed_rate

# A tibble: 904 × 10
    Year Month   Day `Federal Funds Target Rate` `Federal Funds Upper Target`
   <dbl> <dbl> <dbl>                       <dbl>                        <dbl>
 1  1954     7     1                          NA                           NA
 2  1954     8     1                          NA                           NA
 3  1954     9     1                          NA                           NA
 4  1954    10     1                          NA                           NA
 5  1954    11     1                          NA                           NA
 6  1954    12     1                          NA                           NA
 7  1955     1     1                          NA                           NA
 8  1955     2     1                          NA                           NA
 9  1955     3     1                          NA                           NA
10  1955     4     1                          NA                           NA
# ℹ 894 more rows
# ℹ 5 more variables: `Federal Funds Lower Target` <dbl>,
#   `Effective Federal Funds Rate` <dbl>, `Real GDP (Percent Change)` <dbl>,
#   `Unemployment Rate` <dbl>, `Inflation Rate` <dbl>
…
