Homework 2
…
Rows: 119390 Columns: 32
── Column specification ────────────────────────────────────────────────────────
Delimiter: ","
chr  (13): hotel, arrival_date_month, meal, country, market_segment, distrib...
dbl  (18): is_canceled, lead_time, arrival_date_year, arrival_date_week_numb...
date  (1): reservation_status_date

ℹ Use `spec()` to retrieve the full column specification for this data.
ℹ Specify the column types or set `show_col_types = FALSE` to quiet this message.

Code

hotel_bookings

# A tibble: 119,390 × 32
   hotel        is_canceled lead_time arrival_date_year arrival_date_month
   <chr>              <dbl>     <dbl>             <dbl> <chr>             
 1 Resort Hotel           0       342              2015 July              
 2 Resort Hotel           0       737              2015 July              
 3 Resort Hotel           0         7              2015 July              
 4 Resort Hotel           0        13              2015 July              
 5 Resort Hotel           0        14              2015 July              
 6 Resort Hotel           0        14              2015 July              
 7 Resort Hotel           0         0              2015 July              
 8 Resort Hotel           0         9              2015 July              
 9 Resort Hotel           1        85              2015 July              
10 Resort Hotel           1        75              2015 July              
# ℹ 119,380 more rows
# ℹ 27 more variables: arrival_date_week_number <dbl>,
#   arrival_date_day_of_month <dbl>, stays_in_weekend_nights <dbl>,
#   stays_in_week_nights <dbl>, adults <dbl>, children <dbl>, babies <dbl>,
#   meal <chr>, country <chr>, market_segment <chr>,
#   distribution_channel <chr>, is_repeated_guest <dbl>,
#   previous_cancellations <dbl>, previous_bookings_not_canceled <dbl>, …
…
Clean the data

We can now start cleaning the dataset. I will be checking if any columns have duplicate values, missing values, null values and remove irrelavent columns. I will also use data visualization to understand the data better.

Duplicate values: I see that the data has duplicate rows thus I will drop it using the unique() function. Now the new data has 87,392 rows.

Code

duplicate_rows <- hotel_bookings[duplicated(hotel_bookings) | duplicated(hotel_bookings, fromLast = TRUE), ]
duplicate_rows

# A tibble: 40,165 × 32
   hotel        is_canceled lead_time arrival_date_year arrival_date_month
   <chr>              <dbl>     <dbl>             <dbl> <chr>             
 1 Resort Hotel           0        14              2015 July              
 2 Resort Hotel           0        14              2015 July              
 3 Resort Hotel           0        72              2015 July              
 4 Resort Hotel           0        72              2015 July              
 5 Resort Hotel           0        70              2015 July              
 6 Resort Hotel           0        70              2015 July              
 7 Resort Hotel           1         5              2015 July              
 8 Resort Hotel           1         5              2015 July              
 9 Resort Hotel           0         0              2015 July              
10 Resort Hotel           0         0              2015 July              
# ℹ 40,155 more rows
# ℹ 27 more variables: arrival_date_week_number <dbl>,
#   arrival_date_day_of_month <dbl>, stays_in_weekend_nights <dbl>,
#   stays_in_week_nights <dbl>, adults <dbl>, children <dbl>, babies <dbl>,
#   meal <chr>, country <chr>, market_segment <chr>,
#   distribution_channel <chr>, is_repeated_guest <dbl>,
#   previous_cancellations <dbl>, previous_bookings_not_canceled <dbl>, …
…
